﻿{
    "SubmitApplication": {
        "policyId": "ABCDEFGHIJKLMNOPQRSTUVWXYZA",
        "primaryAnnuitant": {
            "uid": "ABCDEFG",
            "firstName": "ABCDEFGHIJKLMNOPQRSTUVW",
            "middleName": "ABCDEFGHIJ",
            "lastName": "ABCDEFGHIJKLMNOPQR",
            "email": "ABCDEFGH",
            "gender": "M",
            "birthDate": "6455-16-18",
            "phoneNumber": null,
            "address": [
                {}, 
                null
            ],
            "ssn": {}
        },
        "joint": false,
        "initialPaymentAccount": {
            "uid": "ABCDEFGHIJKLMNOPQRSTUVW",
            "type": "checking",
            "accountNumber": "ABCDE",
            "accountAbaRoutingNumber": "ABCDEFGH",
            "accountWireRoutingNumber": "ABCDEFGHIJKLMNOPQRSTUVWXYZ"
        },
        "initialContributionAmount": 590.5,
        "primaryBeneficiaries": [],
        "autoPay": true,
        "quote": {
            "uid": "ABCDEFGHIJKLMNOP",
            "premiumAmount": 322.75,
            "incomeAmount": -95.75,
            "excludedIncomeAmount": 295,
            "paymentFrequency": "ABCDEFGHIJKLMNOPQRSTUVWXYZA",
            "birthDate": "4745-92-42",
            "incomeStartDate": "4261-14-25",
            "gender": "F",
            "quoteType": "income",
            "state": "ABCDEFGHIJ",
            "fundType": "roth_ira",
            "deathBenefit": false,
            "returnOfPremium": true,
            "joint": true,
            "createdAt": "8590-84-62T13:03:28+3415",
            "jointBirthDate": "4077-19-75",
            "jointGender": "M",
            "primaryContinuation": 585,
            "jointContinuation": 137,
            "certainPeriod": 445
        },
        "correlationId": "ABCDEFGHIJKLMNOPQRSTUVWXY",
        "withHolding": {
            "federal": 31.5,
            "federalType": "percent",
            "state": 452.25,
            "stateType": "amount",
            "federalPct": 292.5,
            "federalAmount": 869.75,
            "statePct": 668.75,
            "stateAmount": 602.5,
            "allowances": 16,
            "additionalAmount": 497.25,
            "maritalStatus": "married"
        },
        "producer": {
            "producerCertification": false,
            "producerCertificationExplanation": "ABCDEFGHIJKLMNOPQRSTUVWXY",
            "producerFirstName": "ABCDEFGHIJKLMNOPQRSTUVWXY",
            "producerLastName": "ABCDEFGHIJKLMNOPQRS",
            "producerMiddleName": "ABCDEFGHIJKLMNOP",
            "producerEmail": "ABCDEFGHIJKLMNO",
            "producerCommissionPct": 935.75,
            "producerCommissionOption": "lump_sum",
            "insurerProducerNumber": "ABCDEFGHIJKLMNOP",
            "producerInsuranceLicenseNumber": "ABCDEFGHI",
            "brokerDealerName": "ABCDEFGHIJ",
            "agencyName": "ABCDEFGHIJKLMNOPQRSTUVWX",
            "agencyId": "ABCDEFGHIJKLMNOPQRSTUV",
            "agencyAddress": {
                "Address": {
                    "uid": "ABCDEFGH",
                    "addressLineOne": "ABCDEFGHIJKLMNOPQRSTUVWXY",
                    "addressLineTwo": "ABCDEFGHIJKLMNOPQRSTUV",
                    "city": "ABCD",
                    "state": "ABCDEFGHIJKLMNOPQRSTUV",
                    "zipcode": "ABCD"
                }
            },
            "agencyPhoneNumber": "(637) 240-2508"
        },
        "jointAnnuitant": {
            "uid": "ABCDEFGHIJKLMNOPQRSTUVWXYZ",
            "firstName": "ABCD",
            "middleName": "ABCDEFGHIJKLMNOP",
            "lastName": "ABCDEFGHI",
            "email": "ABCDEFGHIJK",
            "gender": "F",
            "birthDate": "1689-87-33",
            "phoneNumber": "ABCDEFGHIJKLMNOPQRST",
            "address": [
                "ABCDEFGHIJK", 
                true
            ],
            "ssn": 63
        },
        "recurringPaymentAccount": {
            "uid": "ABCDE",
            "type": "savings",
            "accountNumber": "ABCDEFGHIJ",
            "accountAbaRoutingNumber": "ABCDEFGHIJKLMNOPQR",
            "accountWireRoutingNumber": "ABCDEFGHIJKLMNOPQRSTUV"
        },
        "recurringContributionAmount": 587,
        "secondaryBeneficiaries": [],
        "documents": [],
        "paymentSchedule": {
            "uid": "ABCDE",
            "contributionFrequency": "ABCDEFGHIJKLMNOPQRSTUV",
            "startDate": "4603-23-42",
            "endDate": "7268-44-53",
            "annualIncreasePercent": 305,
            "paymentDayOfMonth": 938,
            "paymentMonthOfYear": 375
        }
    }
}