{
  "type": "object",
  "properties": {
    "uid": {
      "type": "string"
    },
    "firstName": {
      "type": "string"
    },
    "lastName": {
      "type": "string"
    },
    "relationship": {
      "type": "string"
    },
    "addressLineOne": {
      "type": "string"
    },
    "addressLineTwo": {
      "type": "string"
    },
    "city": {
      "type": "string"
    },
    "state": {
      "type": "string"
    },
    "zipcode": {
      "type": "string"
    },
    "phoneNumber": {
      "$ref": "phone-number-0.1.0.json"
    },
    "ssn": {
      "$ref": "ssn-0.1.0.json"
    },
    "allocationPercent": {
      "type": "number",
      "example": 0.5
    },
    "birthDate": {
      "type": "string",
      "pattern": "^(\\d{4})-(\\d{2})-(\\d{2})$"
    }
  },
  "additionalProperties": true,
  "required": [
    "uid",
    "firstName",
    "lastName",
    "relationship",
    "addressLineOne",
    "addressLineTwo",
    "city",
    "state",
    "zipcode",
    "phoneNumber",
    "ssn",
    "allocationPercent",
    "birthDate"
  ],
  "$schema": "http://json-schema.org/draft-06/schema#"
}
